﻿var i = 2;
            if (!File.Exists(Environment.GetFolderPath(Environment.SpecialFolder.LocalApplicationData) + "\\CompletedFirstFirstVault.txt"))
            {
                Directory.CreateDirectory(MainDirectory);
                string PartsSecond = "12";
                await Download(
                    "https://raw.githubusercontent.com/EpicGamesGun/GitHub-Vault-2/master/GitHub%20Vault.part01.exe",
                    MainDirectory + "\\GitHub Vault.part01.exe");
                string FirstFileSizeSecond = "";
                FileInfo FirstFileSizeCheckerSecond = new FileInfo(MainDirectory + "\\GitHub Vault.part01.exe");
                FirstFileSizeSecond = FirstFileSizeCheckerSecond.Length.ToString();
                while (Int32.Parse(PartsSecond) + 1 > i)
                {
                    if (i < 10)
                    {
                        await Download(
                            "https://raw.githubusercontent.com/EpicGamesGun/GitHub-Vault-2/master/GitHub%20Vault.part0" + i + ".rar",
                            MainDirectory + "\\GitHub Vault.part0" + i + ".rar");
                        FileInfo CheckSize = new FileInfo(MainDirectory + "\\GitHub Vault.part0" + i + ".rar");
                        CheckSize.Refresh();

                        if (CheckSize.Length.ToString() == FirstFileSizeSecond)
                        {

                        }
                        else
                        {
                            await Download(
                                "https://raw.githubusercontent.com/EpicGamesGun/GitHub-Vault-2/master/GitHub%20Vault.part0" + i + ".rar",
                                MainDirectory + "\\GitHub Vault.part0" + i + ".rar");
                        }

                    }
                    else if (i > 9)
                    {
                        await Download(
                            "https://raw.githubusercontent.com/EpicGamesGun/GitHub-Vault-2/master/GitHub%20Vault.part" + i + ".rar",
                            MainDirectory + "\\GitHub Vault.part" + i + ".rar");
                        FileInfo CheckSize = new FileInfo(MainDirectory + "\\GitHub Vault.part" + i + ".rar");
                        CheckSize.Refresh();

                        if (CheckSize.Length.ToString() == FirstFileSizeSecond)
                        {

                        }
                        else
                        {
                            await Download(
                                "https://raw.githubusercontent.com/EpicGamesGun/GitHub-Vault-2/master/GitHub%20Vault.part" + i + ".rar",
                                MainDirectory + "\\GitHub Vault.part" + i + ".rar");
                        }

                    }
                    i++;
                }

                await Task.Factory.StartNew(() =>
                {
                    Process.Start(MainDirectory + "\\GitHub Vault.part01.exe").WaitForExit();
                });
            }

            ////


             if (!File.Exists(Environment.GetFolderPath(Environment.SpecialFolder.ApplicationData) + "\\CompletedFirstVault.txt"))
            {
                i = 2;
                string Parts = "12";
                await Download(
                    "https://raw.githubusercontent.com/EpicGamesGun/GitHub-Vault-1/master/GitHub%20Vault.part01.exe",
                    MainDirectory + "\\GitHub Vault.part01.exe");
                string FirstFileSize = "";
                FileInfo FirstFileSizeChecker = new FileInfo(MainDirectory + "\\GitHub Vault.part01.exe");
                FirstFileSize = FirstFileSizeChecker.Length.ToString();
                while (Int32.Parse(Parts) + 1 > i)
                {
                    if (i < 10)
                    {
                        await Download(
                            "https://raw.githubusercontent.com/EpicGamesGun/GitHub-Vault-1/master/GitHub%20Vault.part0" + i + ".rar",
                            MainDirectory + "\\GitHub Vault.part0" + i + ".rar");
                        FileInfo CheckSize = new FileInfo(MainDirectory + "\\GitHub Vault.part0" + i + ".rar");
                        CheckSize.Refresh();

                        if (CheckSize.Length.ToString() == FirstFileSize)
                        {

                        }
                        else
                        {
                            await Download(
                                "https://raw.githubusercontent.com/EpicGamesGun/GitHub-Vault-1/master/GitHub%20Vault.part0" + i + ".rar",
                                MainDirectory + "\\GitHub Vault.part0" + i + ".rar");
                        }

                    }
                    else if (i > 9)
                    {
                        await Download(
                            "https://raw.githubusercontent.com/EpicGamesGun/GitHub-Vault-1/master/GitHub%20Vault.part" + i + ".rar",
                            MainDirectory + "\\GitHub Vault.part" + i + ".rar");
                        FileInfo CheckSize = new FileInfo(MainDirectory + "\\GitHub Vault.part" + i + ".rar");
                        CheckSize.Refresh();

                        if (CheckSize.Length.ToString() == FirstFileSize)
                        {

                        }
                        else
                        {
                            await Download(
                                "https://raw.githubusercontent.com/EpicGamesGun/GitHub-Vault-1/master/GitHub%20Vault.part" + i + ".rar",
                                MainDirectory + "\\GitHub Vault.part" + i + ".rar");
                        }


                    }
                    i++;
                }

                await Task.Factory.StartNew(() =>
                {
                    Process.Start(MainDirectory + "\\GitHub Vault.part01.exe").WaitForExit();
                });
            }